-I/opt/microchip/xc8/v2.40/pic/include/
-I/opt/microchip/xc8/v2.40/pic/include/c99/
-I/opt/microchip/xc8/v2.40/pic/include/proc/
-I.
-D__XC8
-D__PICC__
-D_16F876A
-D_XTAL_FREQ=4000000
-D__XTAL_FREQ=4000000
-D__at(add)=/**/
-D__bit=char
-D__bank0=/**/
-D__nonreentrant=/**/
-D__int24=long
-D__uint24=unsigned long
-D__interrupt(x)=/**/
-Dirq(x)=/**/
-DHAS_PORTA
-DHAS_PORTB
-DHAS_PORTC
-DGETC_IS_UART_GETC
-DPUTC_IS_UART_PUTC
-Wall
-Wextra
-Wno-unknown-pragmas
-Wno-main-return-type
